simulation/qsim/LogicalStep_Lab4.msim.vcd
$comment
	File created using the following command:
		vcd file LogicalStep_Lab4.msim.vcd -direction
$end
$date
	Sun Mar 24 16:22:13 2024
$end
$version
	ModelSim Version 10.5b
$end
$timescale
	1ps
$end

$scope module logicalstep_lab4_top_vhd_vec_tst $end
$var wire 1 ! blink_sig_wv $end
$var wire 1 " clkin_50 $end
$var wire 1 # EW_a $end
$var wire 1 $ EW_d $end
$var wire 1 % EW_g $end
$var wire 1 & leds [7] $end
$var wire 1 ' leds [6] $end
$var wire 1 ( leds [5] $end
$var wire 1 ) leds [4] $end
$var wire 1 * leds [3] $end
$var wire 1 + leds [2] $end
$var wire 1 , leds [1] $end
$var wire 1 - leds [0] $end
$var wire 1 . NS_a $end
$var wire 1 / NS_d $end
$var wire 1 0 NS_g $end
$var wire 1 1 pb_n [3] $end
$var wire 1 2 pb_n [2] $end
$var wire 1 3 pb_n [1] $end
$var wire 1 4 pb_n [0] $end
$var wire 1 5 rst_n $end
$var wire 1 6 seg7_char1 $end
$var wire 1 7 seg7_char2 $end
$var wire 1 8 seg7_data [6] $end
$var wire 1 9 seg7_data [5] $end
$var wire 1 : seg7_data [4] $end
$var wire 1 ; seg7_data [3] $end
$var wire 1 < seg7_data [2] $end
$var wire 1 = seg7_data [1] $end
$var wire 1 > seg7_data [0] $end
$var wire 1 ? sm_clken_wv $end
$var wire 1 @ sw [7] $end
$var wire 1 A sw [6] $end
$var wire 1 B sw [5] $end
$var wire 1 C sw [4] $end
$var wire 1 D sw [3] $end
$var wire 1 E sw [2] $end
$var wire 1 F sw [1] $end
$var wire 1 G sw [0] $end

$scope module i1 $end
$var wire 1 H gnd $end
$var wire 1 I vcc $end
$var wire 1 J unknown $end
$var wire 1 K devoe $end
$var wire 1 L devclrn $end
$var wire 1 M devpor $end
$var wire 1 N ww_devoe $end
$var wire 1 O ww_devclrn $end
$var wire 1 P ww_devpor $end
$var wire 1 Q ww_clkin_50 $end
$var wire 1 R ww_rst_n $end
$var wire 1 S ww_pb_n [3] $end
$var wire 1 T ww_pb_n [2] $end
$var wire 1 U ww_pb_n [1] $end
$var wire 1 V ww_pb_n [0] $end
$var wire 1 W ww_sw [7] $end
$var wire 1 X ww_sw [6] $end
$var wire 1 Y ww_sw [5] $end
$var wire 1 Z ww_sw [4] $end
$var wire 1 [ ww_sw [3] $end
$var wire 1 \ ww_sw [2] $end
$var wire 1 ] ww_sw [1] $end
$var wire 1 ^ ww_sw [0] $end
$var wire 1 _ ww_leds [7] $end
$var wire 1 ` ww_leds [6] $end
$var wire 1 a ww_leds [5] $end
$var wire 1 b ww_leds [4] $end
$var wire 1 c ww_leds [3] $end
$var wire 1 d ww_leds [2] $end
$var wire 1 e ww_leds [1] $end
$var wire 1 f ww_leds [0] $end
$var wire 1 g ww_sm_clken_wv $end
$var wire 1 h ww_blink_sig_wv $end
$var wire 1 i ww_EW_a $end
$var wire 1 j ww_EW_g $end
$var wire 1 k ww_EW_d $end
$var wire 1 l ww_NS_a $end
$var wire 1 m ww_NS_g $end
$var wire 1 n ww_NS_d $end
$var wire 1 o ww_seg7_data [6] $end
$var wire 1 p ww_seg7_data [5] $end
$var wire 1 q ww_seg7_data [4] $end
$var wire 1 r ww_seg7_data [3] $end
$var wire 1 s ww_seg7_data [2] $end
$var wire 1 t ww_seg7_data [1] $end
$var wire 1 u ww_seg7_data [0] $end
$var wire 1 v ww_seg7_char1 $end
$var wire 1 w ww_seg7_char2 $end
$var wire 1 x \pb_n[2]~input_o\ $end
$var wire 1 y \pb_n[3]~input_o\ $end
$var wire 1 z \sw[0]~input_o\ $end
$var wire 1 { \sw[1]~input_o\ $end
$var wire 1 | \sw[2]~input_o\ $end
$var wire 1 } \sw[3]~input_o\ $end
$var wire 1 ~ \sw[4]~input_o\ $end
$var wire 1 !! \sw[5]~input_o\ $end
$var wire 1 "! \sw[6]~input_o\ $end
$var wire 1 #! \sw[7]~input_o\ $end
$var wire 1 $! \seg7_data[6]~output_o\ $end
$var wire 1 %! \leds[0]~output_o\ $end
$var wire 1 &! \leds[1]~output_o\ $end
$var wire 1 '! \leds[2]~output_o\ $end
$var wire 1 (! \leds[3]~output_o\ $end
$var wire 1 )! \leds[4]~output_o\ $end
$var wire 1 *! \leds[5]~output_o\ $end
$var wire 1 +! \leds[6]~output_o\ $end
$var wire 1 ,! \leds[7]~output_o\ $end
$var wire 1 -! \sm_clken_wv~output_o\ $end
$var wire 1 .! \blink_sig_wv~output_o\ $end
$var wire 1 /! \EW_a~output_o\ $end
$var wire 1 0! \EW_g~output_o\ $end
$var wire 1 1! \EW_d~output_o\ $end
$var wire 1 2! \NS_a~output_o\ $end
$var wire 1 3! \NS_g~output_o\ $end
$var wire 1 4! \NS_d~output_o\ $end
$var wire 1 5! \seg7_data[0]~output_o\ $end
$var wire 1 6! \seg7_data[1]~output_o\ $end
$var wire 1 7! \seg7_data[2]~output_o\ $end
$var wire 1 8! \seg7_data[3]~output_o\ $end
$var wire 1 9! \seg7_data[4]~output_o\ $end
$var wire 1 :! \seg7_data[5]~output_o\ $end
$var wire 1 ;! \seg7_char1~output_o\ $end
$var wire 1 <! \seg7_char2~output_o\ $end
$var wire 1 =! \clkin_50~input_o\ $end
$var wire 1 >! \INST5|clk_divider:counter[0]~1_combout\ $end
$var wire 1 ?! \rst_n~input_o\ $end
$var wire 1 @! \INST0|rst_n_filtered~0_combout\ $end
$var wire 1 A! \INST2|sreg~0_combout\ $end
$var wire 1 B! \INST5|clk_divider:counter[0]~q\ $end
$var wire 1 C! \INST5|clk_divider:counter[0]~2\ $end
$var wire 1 D! \INST5|clk_divider:counter[1]~1_combout\ $end
$var wire 1 E! \INST5|clk_divider:counter[1]~q\ $end
$var wire 1 F! \INST5|clk_divider:counter[1]~2\ $end
$var wire 1 G! \INST5|clk_divider:counter[2]~1_combout\ $end
$var wire 1 H! \INST5|clk_divider:counter[2]~q\ $end
$var wire 1 I! \INST5|clk_divider:counter[2]~2\ $end
$var wire 1 J! \INST5|clk_divider:counter[3]~1_combout\ $end
$var wire 1 K! \INST5|clk_divider:counter[3]~q\ $end
$var wire 1 L! \INST5|clk_divider:counter[3]~2\ $end
$var wire 1 M! \INST5|clk_divider:counter[4]~1_combout\ $end
$var wire 1 N! \INST5|clk_divider:counter[4]~q\ $end
$var wire 1 O! \INST5|clk_reg_extend~0_combout\ $end
$var wire 1 P! \INST5|clk_reg_extend~1_combout\ $end
$var wire 1 Q! \INST5|sm_clken~combout\ $end
$var wire 1 R! \pb_n[0]~input_o\ $end
$var wire 1 S! \INST0|pb_n_filtered[0]~0_combout\ $end
$var wire 1 T! \INST4|sreg~0_combout\ $end
$var wire 1 U! \INST7|sreg~0_combout\ $end
$var wire 1 V! \INST7|sreg~q\ $end
$var wire 1 W! \pb_n[1]~input_o\ $end
$var wire 1 X! \INST0|pb_n_filtered[1]~1_combout\ $end
$var wire 1 Y! \INST3|sreg~0_combout\ $end
$var wire 1 Z! \INST6|sreg~0_combout\ $end
$var wire 1 [! \INST6|sreg~q\ $end
$var wire 1 \! \INST8|current_state~31_combout\ $end
$var wire 1 ]! \INST8|current_state.S15~q\ $end
$var wire 1 ^! \INST8|current_state~26_combout\ $end
$var wire 1 _! \INST8|current_state.S0~q\ $end
$var wire 1 `! \INST8|current_state~28_combout\ $end
$var wire 1 a! \INST8|current_state.S1~q\ $end
$var wire 1 b! \INST8|current_state~20_combout\ $end
$var wire 1 c! \INST8|current_state.S2~q\ $end
$var wire 1 d! \INST8|current_state~21_combout\ $end
$var wire 1 e! \INST8|current_state.S3~q\ $end
$var wire 1 f! \INST8|current_state~18_combout\ $end
$var wire 1 g! \INST8|current_state.S4~q\ $end
$var wire 1 h! \INST8|current_state~19_combout\ $end
$var wire 1 i! \INST8|current_state.S5~q\ $end
$var wire 1 j! \INST8|Selector0~0_combout\ $end
$var wire 1 k! \INST8|current_state.S6~q\ $end
$var wire 1 l! \INST8|current_state~30_combout\ $end
$var wire 1 m! \INST8|current_state.S7~q\ $end
$var wire 1 n! \INST8|current_state~27_combout\ $end
$var wire 1 o! \INST8|current_state.S8~q\ $end
$var wire 1 p! \INST8|current_state~29_combout\ $end
$var wire 1 q! \INST8|current_state.S9~q\ $end
$var wire 1 r! \INST8|current_state~24_combout\ $end
$var wire 1 s! \INST8|current_state.S10~q\ $end
$var wire 1 t! \INST8|current_state~25_combout\ $end
$var wire 1 u! \INST8|current_state.S11~q\ $end
$var wire 1 v! \INST8|current_state~22_combout\ $end
$var wire 1 w! \INST8|current_state.S12~q\ $end
$var wire 1 x! \INST8|current_state~23_combout\ $end
$var wire 1 y! \INST8|current_state.S13~q\ $end
$var wire 1 z! \INST8|Selector1~0_combout\ $end
$var wire 1 {! \INST8|current_state.S14~q\ $end
$var wire 1 |! \INST9|clk_proc:COUNT[0]~0_combout\ $end
$var wire 1 }! \INST9|clk_proc:COUNT[0]~q\ $end
$var wire 1 ~! \INST9|clk_proc:COUNT[1]~1_combout\ $end
$var wire 1 !" \INST9|clk_proc:COUNT[1]~q\ $end
$var wire 1 "" \INST9|clk_proc:COUNT[1]~2\ $end
$var wire 1 #" \INST9|clk_proc:COUNT[2]~1_combout\ $end
$var wire 1 $" \INST9|clk_proc:COUNT[2]~q\ $end
$var wire 1 %" \INST9|clk_proc:COUNT[2]~2\ $end
$var wire 1 &" \INST9|clk_proc:COUNT[3]~1_combout\ $end
$var wire 1 '" \INST9|clk_proc:COUNT[3]~q\ $end
$var wire 1 (" \INST9|clk_proc:COUNT[3]~2\ $end
$var wire 1 )" \INST9|clk_proc:COUNT[4]~1_combout\ $end
$var wire 1 *" \INST9|clk_proc:COUNT[4]~q\ $end
$var wire 1 +" \INST9|clk_proc:COUNT[4]~2\ $end
$var wire 1 ," \INST9|clk_proc:COUNT[5]~1_combout\ $end
$var wire 1 -" \INST9|clk_proc:COUNT[5]~q\ $end
$var wire 1 ." \INST9|clk_proc:COUNT[5]~2\ $end
$var wire 1 /" \INST9|clk_proc:COUNT[6]~1_combout\ $end
$var wire 1 0" \INST9|clk_proc:COUNT[6]~q\ $end
$var wire 1 1" \INST9|clk_proc:COUNT[6]~2\ $end
$var wire 1 2" \INST9|clk_proc:COUNT[7]~1_combout\ $end
$var wire 1 3" \INST9|clk_proc:COUNT[7]~q\ $end
$var wire 1 4" \INST9|clk_proc:COUNT[7]~2\ $end
$var wire 1 5" \INST9|clk_proc:COUNT[8]~1_combout\ $end
$var wire 1 6" \INST9|clk_proc:COUNT[8]~q\ $end
$var wire 1 7" \INST9|clk_proc:COUNT[8]~2\ $end
$var wire 1 8" \INST9|clk_proc:COUNT[9]~1_combout\ $end
$var wire 1 9" \INST9|clk_proc:COUNT[9]~q\ $end
$var wire 1 :" \INST9|clk_proc:COUNT[9]~2\ $end
$var wire 1 ;" \INST9|clk_proc:COUNT[10]~1_combout\ $end
$var wire 1 <" \INST9|clk_proc:COUNT[10]~q\ $end
$var wire 1 =" \INST8|NS_A~0_combout\ $end
$var wire 1 >" \INST9|DOUT_TEMP[6]~0_combout\ $end
$var wire 1 ?" \INST8|WideOr2~0_combout\ $end
$var wire 1 @" \INST8|WideOr5~0_combout\ $end
$var wire 1 A" \INST8|WideOr9~0_combout\ $end
$var wire 1 B" \INST8|WideOr7~0_combout\ $end
$var wire 1 C" \INST8|WideOr9~combout\ $end
$var wire 1 D" \INST8|WideOr8~0_combout\ $end
$var wire 1 E" \INST8|WideOr8~1_combout\ $end
$var wire 1 F" \INST8|WideOr8~combout\ $end
$var wire 1 G" \INST8|WideOr7~1_combout\ $end
$var wire 1 H" \INST8|WideOr7~combout\ $end
$var wire 1 I" \INST8|WideOr6~combout\ $end
$var wire 1 J" \INST5|blink_sig~0_combout\ $end
$var wire 1 K" \INST5|blink_sig~q\ $end
$var wire 1 L" \INST8|EW_A~combout\ $end
$var wire 1 M" \INST8|Selector3~0_combout\ $end
$var wire 1 N" \INST8|Selector2~0_combout\ $end
$var wire 1 O" \INST9|DOUT[0]~0_combout\ $end
$var wire 1 P" \INST9|DOUT[3]~1_combout\ $end
$var wire 1 Q" \INST2|sreg\ [1] $end
$var wire 1 R" \INST2|sreg\ [0] $end
$var wire 1 S" \INST4|sreg\ [1] $end
$var wire 1 T" \INST4|sreg\ [0] $end
$var wire 1 U" \INST3|sreg\ [1] $end
$var wire 1 V" \INST3|sreg\ [0] $end
$var wire 1 W" \INST0|sreg4\ [3] $end
$var wire 1 X" \INST0|sreg4\ [2] $end
$var wire 1 Y" \INST0|sreg4\ [1] $end
$var wire 1 Z" \INST0|sreg4\ [0] $end
$var wire 1 [" \INST5|clk_reg_extend\ [1] $end
$var wire 1 \" \INST5|clk_reg_extend\ [0] $end
$var wire 1 ]" \INST0|sreg0\ [3] $end
$var wire 1 ^" \INST0|sreg0\ [2] $end
$var wire 1 _" \INST0|sreg0\ [1] $end
$var wire 1 `" \INST0|sreg0\ [0] $end
$var wire 1 a" \INST0|sreg1\ [3] $end
$var wire 1 b" \INST0|sreg1\ [2] $end
$var wire 1 c" \INST0|sreg1\ [1] $end
$var wire 1 d" \INST0|sreg1\ [0] $end
$var wire 1 e" \INST8|ALT_INV_WideOr6~combout\ $end
$var wire 1 f" \INST8|ALT_INV_NS_A~0_combout\ $end
$var wire 1 g" \INST8|ALT_INV_WideOr7~combout\ $end
$var wire 1 h" \INST8|ALT_INV_WideOr8~combout\ $end
$var wire 1 i" \INST8|ALT_INV_WideOr9~combout\ $end
$var wire 1 j" \INST8|ALT_INV_WideOr2~0_combout\ $end
$var wire 1 k" \INST9|ALT_INV_clk_proc:COUNT[10]~q\ $end
$upscope $end
$upscope $end
$enddefinitions $end
#0
$dumpvars
0!
0"
1#
0$
0%
0.
0/
00
05
16
07
0?
0H
1I
xJ
1K
1L
1M
1N
1O
1P
0Q
0R
0g
0h
1i
0j
0k
0l
0m
0n
1v
0w
1x
1y
xz
x{
x|
x}
x~
x!!
x"!
x#!
0$!
0%!
0&!
0'!
0(!
0)!
0*!
0+!
0,!
0-!
0.!
1/!
00!
01!
02!
03!
04!
15!
06!
07!
08!
09!
0:!
1;!
0<!
0=!
1>!
0?!
1@!
0A!
0B!
0C!
0D!
0E!
1F!
0G!
0H!
0I!
0J!
0K!
1L!
0M!
0N!
0O!
0P!
0Q!
1R!
1S!
0T!
0U!
0V!
1W!
1X!
0Y!
0Z!
0[!
0\!
0]!
1^!
0_!
1`!
0a!
0b!
0c!
0d!
0e!
0f!
0g!
0h!
0i!
0j!
0k!
0l!
0m!
0n!
0o!
0p!
0q!
0r!
0s!
0t!
0u!
0v!
0w!
0x!
0y!
0z!
0{!
1|!
0}!
0~!
0!"
0""
0#"
0$"
1%"
0&"
0'"
0("
0)"
0*"
1+"
0,"
0-"
0."
0/"
00"
11"
02"
03"
04"
05"
06"
17"
08"
09"
0:"
0;"
0<"
1="
0>"
1?"
0@"
0A"
0B"
1C"
1D"
0E"
1F"
0G"
1H"
1I"
0J"
0K"
0L"
0M"
0N"
1O"
0P"
0e"
0f"
0g"
0h"
0i"
0j"
1k"
0&
0'
0(
0)
0*
0+
0,
0-
08
09
0:
0;
0<
0=
1>
x@
xA
xB
xC
xD
xE
xF
xG
11
12
13
14
1S
1T
1U
1V
xW
xX
xY
xZ
x[
x\
x]
x^
0_
0`
0a
0b
0c
0d
0e
0f
0o
0p
0q
0r
0s
0t
1u
0Q"
0R"
0S"
0T"
0U"
0V"
0W"
0X"
0Y"
0Z"
0["
0\"
0]"
0^"
0_"
0`"
0a"
0b"
0c"
0d"
$end
#20000
1"
1Q
1=!
1R"
1B!
1`"
1T"
1d"
1V"
1}!
0|!
1~!
1Y!
1T!
0>!
1C!
1A!
1D!
#40000
0"
0Q
0=!
#60000
1"
1Q
1=!
1Q"
0B!
1E!
1_"
1S"
1c"
1U"
0}!
1!"
1|!
1Z!
0X!
1U!
0S!
0D!
0F!
1>!
0C!
0A!
0T!
0Y!
0^!
0`!
1D!
1F!
1G!
0G!
#80000
0"
0Q
0=!
#100000
1"
1Q
1=!
0R"
0Q"
0E!
1^"
0T"
0S"
1b"
0V"
0U"
1}!
0|!
0~!
1""
0Z!
0U!
0D!
1^!
1`!
1#"
#120000
0"
0Q
0=!
#140000
1"
1Q
1=!
1R"
1B!
1]"
1a"
0}!
0!"
1$"
0#"
0%"
1|!
0""
0>!
1C!
1A!
1D!
1#"
1%"
1&"
0&"
#160000
0"
0Q
0=!
#180000
1"
1Q
1=!
1Q"
0B!
1E!
1}!
0|!
1~!
0D!
0F!
1>!
0C!
0A!
0^!
0`!
1D!
1F!
1G!
0G!
#200000
0"
0Q
0=!
#220000
1"
1Q
1=!
0R"
0Q"
0E!
0}!
1!"
1|!
0D!
1^!
1`!
#240000
0"
0Q
0=!
#260000
1"
1Q
1=!
1R"
1B!
1}!
0|!
0~!
1""
0>!
1C!
1A!
1D!
0#"
0%"
1&"
#280000
0"
0Q
0=!
#300000
1"
1Q
1=!
1Q"
0B!
1E!
0}!
0!"
0$"
1'"
0&"
1("
1#"
1%"
1|!
0""
0D!
0F!
1>!
0C!
0A!
0^!
0`!
1D!
1F!
1G!
0#"
1&"
0("
1)"
0)"
0G!
#320000
0"
15
0Q
1R
1?!
0=!
#340000
1"
1Q
1=!
1Z"
0R"
0Q"
0E!
1}!
0|!
1~!
0D!
1^!
1`!
#360000
0"
0Q
0=!
#380000
1"
1Q
1=!
1Y"
1R"
1B!
0}!
1!"
1|!
0>!
1C!
1A!
0@!
1D!
#400000
0"
0Q
0=!
#420000
1"
1Q
1=!
1X"
0R"
1Q"
0B!
1E!
1}!
0|!
0~!
1""
0D!
0F!
1>!
0C!
0^!
0`!
0A!
1D!
1F!
1G!
1#"
0G!
#440000
0"
0Q
0=!
#460000
1"
1Q
1=!
1W"
0Q"
0E!
0}!
0!"
1$"
0#"
0%"
1|!
0""
0D!
1^!
1`!
1#"
1%"
0&"
1("
1)"
1&"
0("
0)"
#480000
0"
0Q
0=!
#500000
1"
1Q
1=!
1B!
1}!
0|!
1~!
0>!
1C!
1D!
#520000
0"
0Q
0=!
#540000
1"
1Q
1=!
0B!
1E!
0}!
1!"
1|!
0D!
0F!
1>!
0C!
1D!
1F!
1G!
0G!
#560000
0"
0Q
0=!
#580000
1"
1Q
1=!
1B!
1}!
0|!
0~!
1""
0>!
1C!
0D!
0F!
0#"
0%"
0&"
1("
1G!
1)"
#600000
0"
0Q
0=!
#620000
1"
1Q
1=!
0B!
0E!
1H!
0}!
0!"
0$"
0'"
1*"
0)"
0+"
1&"
0("
1#"
1%"
1|!
0""
0G!
1I!
1J"
1D!
1F!
1>!
0C!
0D!
1G!
0I!
1J!
0#"
0&"
1)"
1+"
1,"
0,"
0J!
#640000
0"
0Q
0=!
#660000
1"
1Q
1=!
1B!
1}!
1K"
1.!
1N"
0|!
1~!
0>!
1C!
1h
14!
1D!
1!
1n
1/
#680000
0"
0Q
0=!
#700000
1"
1Q
1=!
0B!
1E!
0}!
1!"
1|!
0D!
0F!
1>!
0C!
1D!
1F!
0G!
1I!
1J!
1G!
0I!
0J!
#720000
0"
0Q
0=!
#740000
1"
1Q
1=!
1B!
1}!
0|!
0~!
1""
0>!
1C!
0D!
0F!
1#"
0G!
1I!
1J!
#760000
0"
0Q
0=!
#780000
1"
1Q
1=!
0B!
0E!
0H!
1K!
0}!
0!"
1$"
0#"
0%"
1|!
0""
0J!
0L!
1G!
0I!
0J"
1D!
1F!
1>!
0C!
0D!
0G!
1J!
1L!
1M!
1#"
1%"
1&"
0&"
0M!
#800000
0"
0Q
0=!
#820000
1"
1Q
1=!
1B!
1}!
0K"
0.!
0N"
0|!
1~!
0>!
1C!
0h
04!
1D!
0!
0n
0/
#840000
0"
0Q
0=!
#860000
1"
1Q
1=!
0B!
1E!
0}!
1!"
1|!
0D!
0F!
1>!
0C!
1D!
1F!
1G!
0G!
#880000
0"
0Q
0=!
#900000
1"
1Q
1=!
1B!
1}!
0|!
0~!
1""
0>!
1C!
0D!
0F!
0#"
0%"
1&"
1G!
#920000
0"
0Q
0=!
#940000
1"
1Q
1=!
0B!
0E!
1H!
0}!
0!"
0$"
1'"
0&"
1("
1#"
1%"
1|!
0""
0G!
1I!
1J"
1D!
1F!
1>!
0C!
0D!
1G!
0I!
0J!
0L!
0#"
1&"
0("
0)"
0+"
1,"
1)"
1+"
1M!
1J!
1L!
0M!
0,"
#960000
0"
0Q
0=!
#980000
1"
1Q
1=!
1B!
1}!
1K"
1.!
1N"
0|!
1~!
0>!
1C!
1h
14!
1D!
1!
1n
1/
#1000000
0"
0Q
0=!
#1020000
1"
1Q
1=!
0B!
1E!
0}!
1!"
1|!
0D!
0F!
1>!
0C!
1D!
1F!
0G!
1I!
0J!
0L!
1G!
0I!
1J!
1L!
1M!
0M!
#1040000
0"
0Q
0=!
#1060000
1"
1Q
1=!
1B!
1}!
0|!
0~!
1""
0>!
1C!
0D!
0F!
1#"
0G!
1I!
0J!
0L!
1M!
#1080000
0"
0Q
0=!
#1100000
1"
1Q
1=!
0B!
0E!
0H!
0K!
1N!
0}!
0!"
1$"
0#"
0%"
1|!
0""
0M!
1O!
1J!
1L!
1G!
0I!
0J"
1D!
1F!
1>!
0C!
0D!
0G!
0J!
1M!
1#"
1%"
0&"
1("
0)"
0+"
1&"
0("
1)"
1+"
1,"
0,"
#1120000
0"
0Q
0=!
#1140000
1"
1Q
1=!
1B!
1\"
1}!
0K"
0.!
0N"
0|!
1~!
1P!
1Q!
0>!
1C!
0h
1-!
04!
1D!
1_!
1a!
0!
1g
0n
1b!
1G"
0`!
1B"
1?
0/
0C"
1i"
1)!
1b
1)
#1160000
0"
0Q
0=!
#1180000
1"
1Q
1=!
0B!
1E!
1["
0}!
1!"
1|!
0Q!
0D!
0F!
1>!
0C!
0-!
1D!
1F!
1G!
0g
0G!
0?
#1200000
0"
0Q
0=!
#1220000
1"
1Q
1=!
1B!
1}!
0|!
0~!
1""
0>!
1C!
0D!
0F!
0#"
0%"
0&"
1("
1G!
0)"
0+"
1,"
#1240000
0"
0Q
0=!
#1260000
1"
1Q
1=!
0B!
0E!
1H!
0}!
0!"
0$"
0'"
0*"
1-"
0,"
1."
1)"
1+"
1&"
0("
1#"
1%"
1|!
0""
0G!
1I!
1J"
1D!
1F!
1>!
0C!
0D!
1G!
0I!
1J!
0#"
0&"
0)"
1,"
0."
1/"
0/"
0J!
#1280000
0"
0Q
0=!
#1300000
1"
1Q
1=!
1B!
1}!
1K"
1.!
1N"
0|!
1~!
0>!
1C!
1h
14!
1D!
1!
1n
1/
#1320000
0"
0Q
0=!
#1340000
1"
1Q
1=!
0B!
1E!
0}!
1!"
1|!
0D!
0F!
1>!
0C!
1D!
1F!
0G!
1I!
1J!
1G!
0I!
0J!
#1360000
0"
0Q
0=!
#1380000
1"
1Q
1=!
1B!
1}!
0|!
0~!
1""
0>!
1C!
0D!
0F!
1#"
0G!
1I!
1J!
#1400000
0"
0Q
0=!
#1420000
1"
1Q
1=!
0B!
0E!
0H!
1K!
0}!
0!"
1$"
0#"
0%"
1|!
0""
0J!
0L!
1G!
0I!
0J"
1D!
1F!
1>!
0C!
0D!
0G!
1J!
1L!
0M!
1#"
1%"
1&"
0&"
1M!
#1440000
0"
0Q
0=!
#1460000
1"
1Q
1=!
1B!
1}!
0K"
0.!
0N"
0|!
1~!
0>!
1C!
0h
04!
1D!
0!
0n
0/
#1480000
0"
0Q
0=!
#1500000
1"
1Q
1=!
0B!
1E!
0}!
1!"
1|!
0D!
0F!
1>!
0C!
1D!
1F!
1G!
0G!
#1520000
0"
0Q
0=!
#1540000
1"
1Q
1=!
1B!
1}!
0|!
0~!
1""
0>!
1C!
0D!
0F!
0#"
0%"
1&"
1G!
#1560000
0"
0Q
0=!
#1580000
1"
1Q
1=!
0B!
0E!
1H!
0}!
0!"
0$"
1'"
0&"
1("
1#"
1%"
1|!
0""
0G!
1I!
1J"
1D!
1F!
1>!
0C!
0D!
1G!
0I!
0J!
0L!
0#"
1&"
0("
1)"
0)"
0M!
1J!
1L!
1M!
#1600000
0"
0Q
0=!
#1620000
1"
1Q
1=!
1B!
1}!
1K"
1.!
1N"
0|!
1~!
0>!
1C!
1h
14!
1D!
1!
1n
1/
#1640000
0"
0Q
0=!
#1660000
1"
1Q
1=!
0B!
1E!
0}!
1!"
1|!
0D!
0F!
1>!
0C!
1D!
1F!
0G!
1I!
0J!
0L!
1G!
0I!
1J!
1L!
0M!
1M!
#1680000
0"
0Q
0=!
#1700000
1"
1Q
1=!
1B!
1}!
0|!
0~!
1""
0>!
1C!
0D!
0F!
1#"
0G!
1I!
0J!
0L!
0M!
#1720000
0"
0Q
0=!
#1740000
1"
1Q
1=!
0B!
0E!
0H!
0K!
0N!
0}!
0!"
1$"
0#"
0%"
1|!
0""
1M!
0O!
1J!
1L!
1G!
0I!
0J"
1D!
1F!
1>!
0C!
0D!
0G!
0J!
0M!
1#"
1%"
0&"
1("
1)"
1&"
0("
0)"
#1760000
0"
0Q
0=!
#1780000
1"
1Q
1=!
1B!
0\"
1}!
0K"
0.!
0N"
0|!
1~!
0P!
0>!
1C!
0h
04!
1D!
0!
0n
0/
#1800000
0"
0Q
0=!
#1820000
1"
1Q
1=!
0B!
1E!
0["
0}!
1!"
1|!
0D!
0F!
1>!
0C!
1D!
1F!
1G!
0G!
#1840000
0"
0Q
0=!
#1860000
1"
1Q
1=!
1B!
1}!
0|!
0~!
1""
0>!
1C!
0D!
0F!
0#"
0%"
0&"
1("
1G!
1)"
#1880000
0"
0Q
0=!
#1900000
1"
1Q
1=!
0B!
0E!
1H!
0}!
0!"
0$"
0'"
1*"
0)"
0+"
1&"
0("
1#"
1%"
1|!
0""
0G!
1I!
1J"
1D!
1F!
1>!
0C!
0D!
1G!
0I!
1J!
0#"
0&"
1)"
1+"
0,"
1."
1/"
1,"
0."
0J!
0/"
#1920000
0"
0Q
0=!
#1940000
1"
1Q
1=!
1B!
1}!
1K"
1.!
1N"
0|!
1~!
0>!
1C!
1h
14!
1D!
1!
1n
1/
#1960000
0"
0Q
0=!
#1980000
1"
1Q
1=!
0B!
1E!
0}!
1!"
1|!
0D!
0F!
1>!
0C!
1D!
1F!
0G!
1I!
1J!
1G!
0I!
0J!
#2000000
0"
0Q
0=!
#2020000
1"
1Q
1=!
1B!
1}!
0|!
0~!
1""
0>!
1C!
0D!
0F!
1#"
0G!
1I!
1J!
#2040000
0"
0Q
0=!
#2060000
1"
1Q
1=!
0B!
0E!
0H!
1K!
0}!
0!"
1$"
0#"
0%"
1|!
0""
0J!
0L!
1G!
0I!
0J"
1D!
1F!
1>!
0C!
0D!
0G!
1J!
1L!
1M!
1#"
1%"
1&"
0&"
0M!
#2080000
0"
0Q
0=!
#2100000
1"
1Q
1=!
1B!
1}!
0K"
0.!
0N"
0|!
1~!
0>!
1C!
0h
04!
1D!
0!
0n
0/
#2120000
0"
0Q
0=!
#2140000
1"
1Q
1=!
0B!
1E!
0}!
1!"
1|!
0D!
0F!
1>!
0C!
1D!
1F!
1G!
0G!
#2160000
0"
0Q
0=!
#2180000
1"
1Q
1=!
1B!
1}!
0|!
0~!
1""
0>!
1C!
0D!
0F!
0#"
0%"
1&"
1G!
#2200000
0"
0Q
0=!
#2220000
1"
1Q
1=!
0B!
0E!
1H!
0}!
0!"
0$"
1'"
0&"
1("
1#"
1%"
1|!
0""
0G!
1I!
1J"
1D!
1F!
1>!
0C!
0D!
1G!
0I!
0J!
0L!
0#"
1&"
0("
0)"
0+"
0,"
1."
1)"
1+"
1M!
1J!
1L!
0M!
1,"
0."
1/"
0/"
#2240000
0"
0Q
0=!
#2260000
1"
1Q
1=!
1B!
1}!
1K"
1.!
1N"
0|!
1~!
0>!
1C!
1h
14!
1D!
1!
1n
1/
#2280000
0"
0Q
0=!
#2300000
1"
1Q
1=!
0B!
1E!
0}!
1!"
1|!
0D!
0F!
1>!
0C!
1D!
1F!
0G!
1I!
0J!
0L!
1G!
0I!
1J!
1L!
1M!
0M!
#2320000
0"
0Q
0=!
#2340000
1"
1Q
1=!
1B!
1}!
0|!
0~!
1""
0>!
1C!
0D!
0F!
1#"
0G!
1I!
0J!
0L!
1M!
#2360000
0"
0Q
0=!
#2380000
1"
1Q
1=!
0B!
0E!
0H!
0K!
1N!
0}!
0!"
1$"
0#"
0%"
1|!
0""
0M!
1O!
1J!
1L!
1G!
0I!
0J"
1D!
1F!
1>!
0C!
0D!
0G!
0J!
1M!
1#"
1%"
0&"
1("
0)"
0+"
1&"
0("
1)"
1+"
0,"
1."
1/"
1,"
0."
0/"
#2400000
0"
0Q
0=!
#2420000
1"
1Q
1=!
1B!
1\"
1}!
0K"
0.!
0N"
0|!
1~!
1P!
1Q!
0>!
1C!
0h
1-!
04!
1D!
0a!
1c!
0!
1g
0n
1d!
0?"
0B"
0b!
0D"
0G"
0I"
1?
0/
1e"
1j"
0/!
0O"
0F"
1C"
1I"
1N"
1%!
1,!
12!
0e"
0i"
1h"
0i
14!
1/!
05!
1O"
1f
1_
1l
0#
1*!
0)!
0,!
02!
1n
1i
0u
1-
1&
1.
15!
1a
0b
0_
0l
1/
1#
0>
1u
0)
1(
0&
0.
1>
#2440000
0"
0Q
0=!
#2460000
1"
1Q
1=!
0B!
1E!
1["
0}!
1!"
1|!
0Q!
0D!
0F!
1>!
0C!
0-!
1D!
1F!
1G!
0g
0G!
0?
#2480000
0"
0Q
0=!
#2500000
1"
1Q
1=!
1B!
1}!
0|!
0~!
1""
0>!
1C!
0D!
0F!
0#"
0%"
0&"
1("
1G!
0)"
0+"
0,"
1."
1/"
#2520000
0"
0Q
0=!
